{
  "info": {
    "name": "Recent Users API Collection",
    "description": "API collection for Recent Users functionality",
    "schema": "https://schema.getpostman.com/json/collection/v2.1.0/collection.json"
  },
  "item": [
    {
      "name": "Get Recent Users",
      "request": {
        "method": "GET",
        "header": [
          {
            "key": "Authorization",
            "value": "Bearer {{admin_jwt_token}}",
            "description": "Admin JWT token"
          },
          {
            "key": "Content-Type",
            "value": "application/json"
          }
        ],
        "url": {
          "raw": "{{base_url}}/user/recent?days=7&page=1&limit=10&sortBy=createdAt&sortOrder=desc",
          "host": ["{{base_url}}"],
          "path": ["user", "recent"],
          "query": [
            {
              "key": "days",
              "value": "7",
              "description": "Number of days to look back (default: 7)"
            },
            {
              "key": "page",
              "value": "1",
              "description": "Page number"
            },
            {
              "key": "limit",
              "value": "10",
              "description": "Items per page (max: 100)"
            },
            {
              "key": "sortBy",
              "value": "createdAt",
              "description": "Sort field: createdAt, lastLoginAt, email"
            },
            {
              "key": "sortOrder",
              "value": "desc",
              "description": "Sort order: asc, desc"
            },
            {
              "key": "role",
              "value": "CANDIDATE",
              "description": "Filter by role: CANDIDATE, COMPANY, ADMIN, SUPER_ADMIN",
              "disabled": true
            },
            {
              "key": "status",
              "value": "ACTIVE",
              "description": "Filter by status: ACTIVE, INACTIVE, SUSPENDED, PENDING_VERIFICATION",
              "disabled": true
            },
            {
              "key": "startDate",
              "value": "2024-01-01",
              "description": "Start date (ISO format)",
              "disabled": true
            },
            {
              "key": "endDate",
              "value": "2024-12-31",
              "description": "End date (ISO format)",
              "disabled": true
            }
          ]
        },
        "description": "Get recent users with filtering and pagination options"
      },
      "response": [
        {
          "name": "Success Response",
          "originalRequest": {
            "method": "GET",
            "header": [],
            "url": {
              "raw": "{{base_url}}/user/recent",
              "host": ["{{base_url}}"],
              "path": ["user", "recent"]
            }
          },
          "status": "OK",
          "code": 200,
          "_postman_previewlanguage": "json",
          "header": [
            {
              "key": "Content-Type",
              "value": "application/json"
            }
          ],
          "cookie": [],
          "body": "{\n  \"users\": [\n    {\n      \"id\": \"user_id\",\n      \"email\": \"user@example.com\",\n      \"role\": \"CANDIDATE\",\n      \"status\": \"ACTIVE\",\n      \"emailVerified\": true,\n      \"phoneVerified\": false,\n      \"profileCompleted\": true,\n      \"twoFactorEnabled\": false,\n      \"lastLoginAt\": \"2024-01-15T10:30:00.000Z\",\n      \"createdAt\": \"2024-01-10T08:00:00.000Z\",\n      \"updatedAt\": \"2024-01-15T10:30:00.000Z\",\n      \"daysSinceRegistration\": 5,\n      \"isNewUser\": true,\n      \"hasLoggedIn\": true,\n      \"lastActivityAt\": \"2024-01-15T10:30:00.000Z\"\n    }\n  ],\n  \"total\": 25,\n  \"page\": 1,\n  \"limit\": 10,\n  \"totalPages\": 3,\n  \"statistics\": {\n    \"totalUsers\": 1000,\n    \"newUsers\": 15,\n    \"activeUsers\": 800,\n    \"inactiveUsers\": 200,\n    \"byRole\": {\n      \"CANDIDATE\": 800,\n      \"COMPANY\": 150,\n      \"ADMIN\": 45,\n      \"SUPER_ADMIN\": 5\n    },\n    \"byStatus\": {\n      \"ACTIVE\": 900,\n      \"INACTIVE\": 80,\n      \"SUSPENDED\": 15,\n      \"PENDING_VERIFICATION\": 5\n    }\n  },\n  \"timeRange\": {\n    \"startDate\": \"2024-01-08T00:00:00.000Z\",\n    \"endDate\": \"2024-01-15T00:00:00.000Z\",\n    \"days\": 7\n  }\n}"
        }
      ]
    },
    {
      "name": "Get Recent Users Statistics",
      "request": {
        "method": "GET",
        "header": [
          {
            "key": "Authorization",
            "value": "Bearer {{admin_jwt_token}}",
            "description": "Admin JWT token"
          },
          {
            "key": "Content-Type",
            "value": "application/json"
          }
        ],
        "url": {
          "raw": "{{base_url}}/user/recent/stats",
          "host": ["{{base_url}}"],
          "path": ["user", "recent", "stats"]
        },
        "description": "Get comprehensive statistics about recent users"
      },
      "response": [
        {
          "name": "Success Response",
          "originalRequest": {
            "method": "GET",
            "header": [],
            "url": {
              "raw": "{{base_url}}/user/recent/stats",
              "host": ["{{base_url}}"],
              "path": ["user", "recent", "stats"]
            }
          },
          "status": "OK",
          "code": 200,
          "_postman_previewlanguage": "json",
          "header": [
            {
              "key": "Content-Type",
              "value": "application/json"
            }
          ],
          "cookie": [],
          "body": "{\n  \"overview\": {\n    \"totalUsers\": 1000,\n    \"newUsers7Days\": 15,\n    \"newUsers30Days\": 60,\n    \"activeUsers7Days\": 200,\n    \"activeUsers30Days\": 800\n  },\n  \"byRole\": {\n    \"CANDIDATE\": 800,\n    \"COMPANY\": 150,\n    \"ADMIN\": 45,\n    \"SUPER_ADMIN\": 5\n  },\n  \"byStatus\": {\n    \"ACTIVE\": 900,\n    \"INACTIVE\": 80,\n    \"SUSPENDED\": 15,\n    \"PENDING_VERIFICATION\": 5\n  },\n  \"trends\": {\n    \"dailyRegistrations\": [\n      {\n        \"date\": \"2024-01-01T00:00:00.000Z\",\n        \"count\": 5\n      },\n      {\n        \"date\": \"2024-01-02T00:00:00.000Z\",\n        \"count\": 8\n      }\n    ]\n  }\n}"
        }
      ]
    },
    {
      "name": "Get Recent Users - Filter by Role",
      "request": {
        "method": "GET",
        "header": [
          {
            "key": "Authorization",
            "value": "Bearer {{admin_jwt_token}}",
            "description": "Admin JWT token"
          },
          {
            "key": "Content-Type",
            "value": "application/json"
          }
        ],
        "url": {
          "raw": "{{base_url}}/user/recent?role=CANDIDATE&days=30&limit=20",
          "host": ["{{base_url}}"],
          "path": ["user", "recent"],
          "query": [
            {
              "key": "role",
              "value": "CANDIDATE",
              "description": "Filter by CANDIDATE role"
            },
            {
              "key": "days",
              "value": "30",
              "description": "Last 30 days"
            },
            {
              "key": "limit",
              "value": "20",
              "description": "20 items per page"
            }
          ]
        },
        "description": "Get recent users filtered by role (CANDIDATE)"
      }
    },
    {
      "name": "Get Recent Users - Filter by Status",
      "request": {
        "method": "GET",
        "header": [
          {
            "key": "Authorization",
            "value": "Bearer {{admin_jwt_token}}",
            "description": "Admin JWT token"
          },
          {
            "key": "Content-Type",
            "value": "application/json"
          }
        ],
        "url": {
          "raw": "{{base_url}}/user/recent?status=ACTIVE&days=7&sortBy=lastLoginAt&sortOrder=desc",
          "host": ["{{base_url}}"],
          "path": ["user", "recent"],
          "query": [
            {
              "key": "status",
              "value": "ACTIVE",
              "description": "Filter by ACTIVE status"
            },
            {
              "key": "days",
              "value": "7",
              "description": "Last 7 days"
            },
            {
              "key": "sortBy",
              "value": "lastLoginAt",
              "description": "Sort by last login"
            },
            {
              "key": "sortOrder",
              "value": "desc",
              "description": "Descending order"
            }
          ]
        },
        "description": "Get recent active users sorted by last login"
      }
    },
    {
      "name": "Get Recent Users - Date Range",
      "request": {
        "method": "GET",
        "header": [
          {
            "key": "Authorization",
            "value": "Bearer {{admin_jwt_token}}",
            "description": "Admin JWT token"
          },
          {
            "key": "Content-Type",
            "value": "application/json"
          }
        ],
        "url": {
          "raw": "{{base_url}}/user/recent?startDate=2024-01-01&endDate=2024-01-31&page=1&limit=50",
          "host": ["{{base_url}}"],
          "path": ["user", "recent"],
          "query": [
            {
              "key": "startDate",
              "value": "2024-01-01",
              "description": "Start date (ISO format)"
            },
            {
              "key": "endDate",
              "value": "2024-01-31",
              "description": "End date (ISO format)"
            },
            {
              "key": "page",
              "value": "1",
              "description": "Page number"
            },
            {
              "key": "limit",
              "value": "50",
              "description": "50 items per page"
            }
          ]
        },
        "description": "Get users registered in a specific date range"
      }
    }
  ],
  "variable": [
    {
      "key": "base_url",
      "value": "https://backend.spearwin.com",
      "description": "Backend API base URL"
    },
    {
      "key": "admin_jwt_token",
      "value": "your_admin_jwt_token_here",
      "description": "Admin JWT token for authentication"
    }
  ]
}
